Bagian 5 Data Wrangling dengan tidyverse | STA561 Pemrograman Statistika
…
library(dslabs)

Selanjutnya load data movilens dari paket dslabs

data(movielens)

Sebelum memulai proses manipulasi data, sangat direkomendasikan untuk melihat bentuk dan struktur data.
Kita sudah mempunyai data movilens, yang merupakan sebuah data frame, yang dapat kita ubah menjadi tibble agar lebih mudah dalam menginspeksi data, terutama data yang berukuran besar. Sebuah tibble apabila ditampilkan dalam layar, hanya muncul maksimal 10 baris pertama, dilengkapi dengan informasi mengenai dimensi tabel, nama dan tipe kolom serta tampilan akan menyesuaikan lebar layar.

movielens <- as_tibble(movielens)
movielens

## # A tibble: 100,004 x 7
##    movieId title                  year genres            userId rating timestamp
##      <int> <chr>                 <int> <fct>              <int>  <dbl>     <int>
##  1      31 Dangerous Minds        1995 Drama                  1    2.5    1.26e9
##  2    1029 Dumbo                  1941 Animation|Childr~      1    3      1.26e9
##  3    1061 Sleepers               1996 Thriller               1    3      1.26e9
##  4    1129 Escape from New York   1981 Action|Adventure~      1    2      1.26e9
##  5    1172 Cinema Paradiso (Nuo~  1989 Drama                  1    4      1.26e9
##  6    1263 Deer Hunter, The       1978 Drama|War              1    2      1.26e9
##  7    1287 Ben-Hur                1959 Action|Adventure~      1    2      1.26e9
##  8    1293 Gandhi                 1982 Drama                  1    2      1.26e9
##  9    1339 Dracula (Bram Stoker~  1992 Fantasy|Horror|R~      1    3.5    1.26e9
## 10    1343 Cape Fear              1991 Thriller               1    2      1.26e9
## # ... with 99,994 more rows
…
mutate() : menghitung kolom/variabel baru

arrange() : mengatur urutan baris

Selain fungsi-fungsi di atas, masih banyak fungsi lain yang dapat digunakan, misalnya group_by() untuk pengelompokan data. Mari kita eksplorasi lebih lanjut.

5.3.4 Memilih kolom: select()

Ketika bekerja dengan data yang mempunyai banyak kolom, biasanya kita ingin memilih kolom-kolom tertentu saja. Hal ini bisa kita lakukan dengan memanfaatkan fungsi select()berdasarkan nama atau posisi kolom. Misalnya dua perintah berikut akan memilih kolom title, year dan genres dari movielens.

movielens %>%
  select(title, year, genres)

## # A tibble: 100,004 x 3
##    title                                    year genres                         
##    <chr>                                   <int> <fct>                          
##  1 Dangerous Minds                          1995 Drama                          
##  2 Dumbo                                    1941 Animation|Children|Drama|Music~
##  3 Sleepers                                 1996 Thriller                       
##  4 Escape from New York                     1981 Action|Adventure|Sci-Fi|Thrill~
##  5 Cinema Paradiso (Nuovo cinema Paradiso)  1989 Drama                          
##  6 Deer Hunter, The                         1978 Drama|War                      
##  7 Ben-Hur                                  1959 Action|Adventure|Drama         
##  8 Gandhi                                   1982 Drama                          
##  9 Dracula (Bram Stoker's Dracula)          1992 Fantasy|Horror|Romance|Thriller
## 10 Cape Fear                                1991 Thriller                       
## # ... with 99,994 more rows

movielens %>%
  select(2, 3, 4)

## # A tibble: 100,004 x 3
##    title                                    year genres                         
##    <chr>                                   <int> <fct>                          
##  1 Dangerous Minds                          1995 Drama                          
##  2 Dumbo                                    1941 Animation|Children|Drama|Music~
##  3 Sleepers                                 1996 Thriller                       
##  4 Escape from New York                     1981 Action|Adventure|Sci-Fi|Thrill~
##  5 Cinema Paradiso (Nuovo cinema Paradiso)  1989 Drama                          
##  6 Deer Hunter, The                         1978 Drama|War                      
##  7 Ben-Hur                                  1959 Action|Adventure|Drama         
##  8 Gandhi                                   1982 Drama                          
##  9 Dracula (Bram Stoker's Dracula)          1992 Fantasy|Horror|Romance|Thriller
## 10 Cape Fear                                1991 Thriller                       
## # ... with 99,994 more rows

Kita dapat menambahkan tanda minus - untuk tidak memilih kolom tersebut.

movielens %>%
  select(-title, -year, -genres)

## # A tibble: 100,004 x 4
##    movieId userId rating  timestamp
##      <int>  <int>  <dbl>      <int>
##  1      31      1    2.5 1260759144
##  2    1029      1    3   1260759179
##  3    1061      1    3   1260759182
##  4    1129      1    2   1260759185
##  5    1172      1    4   1260759205
##  6    1263      1    2   1260759151
##  7    1287      1    2   1260759187
##  8    1293      1    2   1260759148
##  9    1339      1    3.5 1260759125
## 10    1343      1    2   1260759131
## # ... with 99,994 more rows
…
starts_with("abc") : nama kolom diawali “abc.”

ends_with("xyz") : nama kolom diakhiri “xyz.”

contains("ijk") : nama kolom mengandung “ijk.”

num_range("x", 1:3) : memilih kolom x1, x2 dan x3.

Selain memilih kolom, select() juga dapat digunakan untuk mengubah nama kolom, misalnya

movielens %>%
  select(movie_title = title, year, genres)

## # A tibble: 100,004 x 3
##    movie_title                              year genres                         
##    <chr>                                   <int> <fct>                          
##  1 Dangerous Minds                          1995 Drama                          
##  2 Dumbo                                    1941 Animation|Children|Drama|Music~
##  3 Sleepers                                 1996 Thriller                       
##  4 Escape from New York                     1981 Action|Adventure|Sci-Fi|Thrill~
##  5 Cinema Paradiso (Nuovo cinema Paradiso)  1989 Drama                          
##  6 Deer Hunter, The                         1978 Drama|War                      
##  7 Ben-Hur                                  1959 Action|Adventure|Drama         
##  8 Gandhi                                   1982 Drama                          
##  9 Dracula (Bram Stoker's Dracula)          1992 Fantasy|Horror|Romance|Thriller
## 10 Cape Fear                                1991 Thriller                       
## # ... with 99,994 more rows

5.3.5 Menyeleksi baris: filter()

filter() digunakan untuk menyeleksi atau memilih baris atau observasi berdasarkan nilainya. Misalnya kita ingin menampilkan film-film yang dirilis tahun 1995.

movielens %>%
  filter(year == 1995)

## # A tibble: 6,635 x 7
##    movieId title                   year genres           userId rating timestamp
##      <int> <chr>                  <int> <fct>             <int>  <dbl>     <int>
##  1      31 Dangerous Minds         1995 Drama                 1    2.5    1.26e9
##  2      10 GoldenEye               1995 Action|Adventur~      2    4      8.35e8
##  3      17 Sense and Sensibility   1995 Drama|Romance         2    5      8.35e8
##  4      39 Clueless                1995 Comedy|Romance        2    5      8.35e8
##  5      47 Seven (a.k.a. Se7en)    1995 Mystery|Thriller      2    4      8.35e8
##  6      50 Usual Suspects, The     1995 Crime|Mystery|T~      2    4      8.35e8
##  7      52 Mighty Aphrodite        1995 Comedy|Drama|Ro~      2    3      8.35e8
##  8      62 Mr. Holland's Opus      1995 Drama                 2    3      8.35e8
##  9     110 Braveheart              1995 Action|Drama|War      2    4      8.35e8
## 10     144 Brothers McMullen, The  1995 Comedy                2    3      8.35e8
## # ... with 6,625 more rows

Dalam filter(), kita dapat menggunakan berbagai operator, seperti operator dasar <, <=, >, >, == (sama dengan) dan %in% (bagian dari). Argumen filter() yang lebih dari satu dapat digabungkan dengan bolean operator, yaitu & (and/dan), | (or/atau) dan ! (not/tidak). Misalnya untuk menampilkan film-film yang dirilis tahun 1995 dan 1996 serta beraliran/genre hanya drama:

movielens %>%
  filter(year %in% c(1995, 1996) & genres == 'Drama')

## # A tibble: 582 x 7
##    movieId title                     year genres userId rating  timestamp
##      <int> <chr>                    <int> <fct>   <int>  <dbl>      <int>
##  1      31 Dangerous Minds           1995 Drama       1    2.5 1260759144
##  2      62 Mr. Holland's Opus        1995 Drama       2    3    835355749
##  3    1358 Sling Blade               1996 Drama       6    2   1109258181
##  4      31 Dangerous Minds           1995 Drama       7    3    851868750
##  5      40 Cry, the Beloved Country  1995 Drama       7    4    851866901
##  6    1358 Sling Blade               1996 Drama       8    0.5 1154474527
##  7      26 Othello                   1995 Drama       9    3    938628655
##  8    1358 Sling Blade               1996 Drama       9    4    938628450
##  9    1358 Sling Blade               1996 Drama      10    5    942766420
## 10    1423 Hearts and Minds          1996 Drama      10    4    942766420
## # ... with 572 more rows

Sekarang, kolom genres hanya berisi satu nilai yaitu Drama sehingga kita bisa harus kolom tersebut

movielens %>%
  filter(year %in% c(1995, 1996) & genres == 'Drama') %>%
  select(-genres)

## # A tibble: 582 x 6
##    movieId title                     year userId rating  timestamp
##      <int> <chr>                    <int>  <int>  <dbl>      <int>
##  1      31 Dangerous Minds           1995      1    2.5 1260759144
##  2      62 Mr. Holland's Opus        1995      2    3    835355749
##  3    1358 Sling Blade               1996      6    2   1109258181
##  4      31 Dangerous Minds           1995      7    3    851868750
##  5      40 Cry, the Beloved Country  1995      7    4    851866901
##  6    1358 Sling Blade               1996      8    0.5 1154474527
##  7      26 Othello                   1995      9    3    938628655
##  8    1358 Sling Blade               1996      9    4    938628450
##  9    1358 Sling Blade               1996     10    5    942766420
## 10    1423 Hearts and Minds          1996     10    4    942766420
## # ... with 572 more rows

5.3.6 Menambah kolom: mutate()

Selain menggunakan kolom yang sudah tersedia dalam data, seringkali kita ingin membuat kolom baru yang merupakan turunan dari kolom yang sudah ada. Dalam movielens, kolom timestamp ditulis dalam format unix timestamp (jumlah detik dihitung sejak 1 Januari 1970, jam 00:00:00 UTC). Agar lebih mudah dipahami, kita dapat membuat kolom baru dengan mengubah kolom tersebut ke format datetime.

movielens %>%
  mutate(ts = as.POSIXct(timestamp, origin = "1970-01-01")) %>%
  select(-timestamp)

## # A tibble: 100,004 x 7
##    movieId title            year genres        userId rating ts                 
##      <int> <chr>           <int> <fct>          <int>  <dbl> <dttm>             
##  1      31 Dangerous Minds  1995 Drama              1    2.5 2009-12-14 09:52:24
##  2    1029 Dumbo            1941 Animation|Ch~      1    3   2009-12-14 09:52:59
##  3    1061 Sleepers         1996 Thriller           1    3   2009-12-14 09:53:02
##  4    1129 Escape from Ne~  1981 Action|Adven~      1    2   2009-12-14 09:53:05
##  5    1172 Cinema Paradis~  1989 Drama              1    4   2009-12-14 09:53:25
##  6    1263 Deer Hunter, T~  1978 Drama|War          1    2   2009-12-14 09:52:31
##  7    1287 Ben-Hur          1959 Action|Adven~      1    2   2009-12-14 09:53:07
##  8    1293 Gandhi           1982 Drama              1    2   2009-12-14 09:52:28
##  9    1339 Dracula (Bram ~  1992 Fantasy|Horr~      1    3.5 2009-12-14 09:52:05
## 10    1343 Cape Fear        1991 Thriller           1    2   2009-12-14 09:52:11
## # ... with 99,994 more rows

Contoh lain, kita ingin membuat kolom baru yang menyatakan bahwa film berjenis Drama atau bukan:

movielens %>%
  mutate(isDrama = grepl("Drama", genres))

## # A tibble: 100,004 x 8
##    movieId title             year genres         userId rating timestamp isDrama
##      <int> <chr>            <int> <fct>           <int>  <dbl>     <int> <lgl>  
##  1      31 Dangerous Minds   1995 Drama               1    2.5    1.26e9 TRUE   
##  2    1029 Dumbo             1941 Animation|Chi~      1    3      1.26e9 TRUE   
##  3    1061 Sleepers          1996 Thriller            1    3      1.26e9 FALSE  
##  4    1129 Escape from New~  1981 Action|Advent~      1    2      1.26e9 FALSE  
##  5    1172 Cinema Paradiso~  1989 Drama               1    4      1.26e9 TRUE   
##  6    1263 Deer Hunter, The  1978 Drama|War           1    2      1.26e9 TRUE   
##  7    1287 Ben-Hur           1959 Action|Advent~      1    2      1.26e9 TRUE   
##  8    1293 Gandhi            1982 Drama               1    2      1.26e9 TRUE   
##  9    1339 Dracula (Bram S~  1992 Fantasy|Horro~      1    3.5    1.26e9 FALSE  
## 10    1343 Cape Fear         1991 Thriller            1    2      1.26e9 FALSE  
## # ... with 99,994 more rows

Kedua perintah di atas dapat digabungkan menjadi

movielens %>%
  mutate(ts = as.POSIXct(timestamp, origin = "1970-01-01"), 
         isDrama = grepl("Drama", genres)) %>%
  select(-timestamp)

## # A tibble: 100,004 x 8
##    movieId title        year genres    userId rating ts                  isDrama
##      <int> <chr>       <int> <fct>      <int>  <dbl> <dttm>              <lgl>  
##  1      31 Dangerous ~  1995 Drama          1    2.5 2009-12-14 09:52:24 TRUE   
##  2    1029 Dumbo        1941 Animatio~      1    3   2009-12-14 09:52:59 TRUE   
##  3    1061 Sleepers     1996 Thriller       1    3   2009-12-14 09:53:02 FALSE  
##  4    1129 Escape fro~  1981 Action|A~      1    2   2009-12-14 09:53:05 FALSE  
##  5    1172 Cinema Par~  1989 Drama          1    4   2009-12-14 09:53:25 TRUE   
##  6    1263 Deer Hunte~  1978 Drama|War      1    2   2009-12-14 09:52:31 TRUE   
##  7    1287 Ben-Hur      1959 Action|A~      1    2   2009-12-14 09:53:07 TRUE   
##  8    1293 Gandhi       1982 Drama          1    2   2009-12-14 09:52:28 TRUE   
##  9    1339 Dracula (B~  1992 Fantasy|~      1    3.5 2009-12-14 09:52:05 FALSE  
## 10    1343 Cape Fear    1991 Thriller       1    2   2009-12-14 09:52:11 FALSE  
## # ... with 99,994 more rows
…
## # A tibble: 1 x 3
##   uniqueTitle totalReview avgRating
##         <int>       <int>     <dbl>
## 1        8832      100004      3.54

Contoh di atas menghitung banyaknya baris, banyaknya judul unik, dan rata-rata dari rating dalam keseluruhan dataframe, dan meringkasnya menjadi satu baris. Kita dapat melakukan agregasi untuk setiap kelompok/group/class satu kolom atau lebih, dengan memanfaatkan perintah group_by(). Misalnya, contoh di atas dapat dimodifikasi agar perhitungan dilakukan untuk setiap tahun rilis. Dengan menambahkan group_by(year), maka perintah yang dimaksud adalah sebagai berikut:

movielens %>% 
  group_by(year) %>%
  summarise(uniqueTitle = n_distinct(title),
            totalReview = n(),
            avgRating = mean(rating))

## # A tibble: 104 x 4
##     year uniqueTitle totalReview avgRating
##    <int>       <int>       <int>     <dbl>
##  1  1902           1           6      4.33
##  2  1915           1           2      3   
##  3  1916           1           1      3.5 
##  4  1917           1           2      4.25
##  5  1918           1           2      4.25
##  6  1919           1           1      3   
##  7  1920           3          15      3.7 
##  8  1921           5          12      4.42
##  9  1922           6          28      3.80
## 10  1923           3           3      4.17
## # ... with 94 more rows
…
5.3.9 Gabungan beberapa fungsi sekaligus

Setelah mempraktikan bagaimana menggunakan fungsi-fungsi dasar dplyr, mari gabungkan beberapa fungsi dalam satu perintah.

Contoh 1: Katakan untuk setiap film drama, kita ingin menghitung berapa banyak penilaian yang diberikan pada tahun perdana dan tahun-tahun setelahnya. Hasilnya diurutkan dari yang mendapat penilaian terbanyak di tahun perdana.

movielens %>% 
  filter(grepl("Drama", genres)) %>%
  mutate(yearRating = as.numeric(format(as.POSIXct(timestamp, origin = "1970-01-01"), "%Y"))) %>%
  mutate(firstYear = year == yearRating, nextYear = year < yearRating) %>%
  group_by(title) %>%
  summarise(firstYear = sum(firstYear), nextYear = sum(nextYear)) %>%
  arrange(desc(firstYear))

## # A tibble: 4,249 x 3
##    title                    firstYear nextYear
##    <chr>                        <int>    <int>
##  1 Fargo                           19      205
##  2 Gladiator                       19      153
##  3 American Beauty                 18      202
##  4 Blair Witch Project, The        18       68
##  5 Ex Machina                      18        8
##  6 High Fidelity                   18       70
##  7 Dark Knight, The                17      104
##  8 Sixth Sense, The                17      176
##  9 Erin Brockovich                 16       69
## 10 Eraser                          14       55
## # ... with 4,239 more rows
Contoh 2: Kita akan menampilkan satu film dengan rata-rata rating terbaik untuk setiap tahun perilisan. Jika ada beberapa film yang mempunyai rating tertinggi, maka dipilih film dengan jumlah rating terbanyak. Hasil akhir berupa dataframe dengan kolom tahun, judul dan rata-rata rating.

movielens %>% 
  group_by(year, title) %>%
  summarise(avgRating = mean(rating), nRating = n()) %>%
  group_by(year) %>%
  arrange(year, desc(avgRating), desc(nRating)) %>%
  mutate(rn = row_number()) %>%
  filter(rn == 1) %>%
  select(-rn, -nRating) %>%
  ungroup()

## `summarise()` has grouped output by 'year'. You can override using the `.groups` argument.

## # A tibble: 104 x 3
##     year title                                                         avgRating
##    <int> <chr>                                                             <dbl>
##  1  1902 Trip to the Moon, A (Voyage dans la lune, Le)                      4.33
##  2  1915 Birth of a Nation, The                                             3   
##  3  1916 20,000 Leagues Under the Sea                                       3.5 
##  4  1917 Immigrant, The                                                     4.25
##  5  1918 Dog's Life, A                                                      4.25
##  6  1919 Billy Blazes, Esq.                                                 3   
##  7  1920 Cabinet of Dr. Caligari, The (Cabinet des Dr. Caligari., Das)      4   
##  8  1921 Goat, The                                                          5   
##  9  1922 Cops                                                               5   
## 10  1923 Our Hospitality                                                    4.5 
## # ... with 94 more rows
…
5.5.1 Long ke wide

Data airquality berformat long. Misalnya kita akan mengubahnya menjadi format wide untuk kolom Month sebagai nama dan Temp sebagai nilai. Fungsi yang dapat digunakan adalah pivot_wider()

air_wide <- 
  airquality %>% 
  select(Temp, Month, Day) %>%
  pivot_wider(names_from = Month, 
              values_from = Temp,
              names_prefix = "Month")
air_wide

## # A tibble: 31 x 6
##      Day Month5 Month6 Month7 Month8 Month9
##    <int>  <int>  <int>  <int>  <int>  <int>
##  1     1     67     78     84     81     91
##  2     2     72     74     85     81     92
##  3     3     74     67     81     82     93
##  4     4     62     84     84     86     93
##  5     5     56     85     83     85     87
##  6     6     66     79     83     87     84
##  7     7     65     82     88     89     80
##  8     8     59     87     92     90     78
##  9     9     61     90     92     90     75
## 10    10     69     87     89     92     73
## # ... with 21 more rows
…
